﻿###################################
# Default Personality Animations  #
###################################

idle = {
	male = {
		default = { head = "idle_entry" torso = "idle_entry" }

		smoker_character_idle = {
			animation = { head = "idle_entry" torso = "idle_entry" }

	        weight = {
	            base = 0
	            modifier = {
	                add = 90000

	                has_dlc_feature = ep1_cosmetics

	                scope:character ?= {
	                    age >= define:NCharacters|ADULT_AGE # always refer to the Defines entry rather than set an arbitrary figure, just to keep things consistent
	                    OR = {
		                    has_trait = grifter
		                    has_trait = expensive_tastes
		                    has_trait = hedonist
		                }
		                is_historical = no
		                owner ?= {
		                	NOT = {
		                		is_country_type = decentralized
		                	}
							market ?= {
								mg:tobacco ?= {
									market_goods_sell_orders > 0
								}
							}
		                }
	                }
	            }
				modifier = {
	                add = 90000

	                has_dlc_feature = ep1_cosmetics

	                scope:character ?= {
	                    has_template = ruler_arturo_silna_lioncost
	                }
	            }
	        }

			portrait_modifier = { animations_props = smoking_attachment }
		}

		###################################
		# POP Animations  #
		###################################

		hatacademic_pop_idle = {
			animation = { head = "idle_head_pop_hatacademic" torso = "idle_body_hatacademic" }

			weight = {
				base = 0

				modifier = {
					add = 200

				    exists = scope:pop
				    scope:pop = {
						is_pop_type = academics
					}
					struggling_pop_trigger = no
				}
			}							
		}

		hatacademic_pop_idle_struggle = {
			animation = { head = "idle_head_struggle_pop_hatacademic" torso = "idle_body_struggle_hatacademic" }

			weight = {
				base = 0

				modifier = {
					add = 200
					
				    exists = scope:pop
				    scope:pop = {
						is_pop_type = academics
					}
					struggling_pop_trigger = yes
				}
			}
		}

		basket_pop_idle = {
			animation = { head = "idle_head_pop_basket" torso = "idle_body_basket" }

			weight = {
				base = 0

				modifier = {
					add = 50
					poor_clothes_pop_trigger = yes
					struggling_pop_trigger = no
				}
			}
			portrait_modifier = { animations_props = basket_attachment	 }
		}		
		
		saber_pop_idle= {
			animation = { head = "idle_head_pop_saber" torso = "idle_body_saber" }

			weight = {
				base = 0

				modifier = {
					add = 110
					officers_clothes_pop_trigger = yes
					struggling_pop_trigger = no
				}
			}
			portrait_modifier = { 
				animations_props = saber_attachment	
			}
		}

		shovels_pop_idle = {
			animation = { head = "idle_head_pop_hattop" torso = "idle_body_shovels" }
				

			weight = {
				base = 0

				modifier = {
					add = 100
					laborers_clothes_pop_trigger = yes
					struggling_pop_trigger = no				
				}
			}
			portrait_modifier = { animations_props = shovel_attachment	}

		}

		clergy_india_idle = {
			animation = { head = "idle_head_pop_holyscripture" torso = "idle_body_emotions_boastful" }

			weight = {
				base = 0

				modifier = {
					add = 5000

					OR = {
		                hindu_clothes_pop_trigger = yes
		                buddhist_clothes_pop_trigger = yes
		            }
	                clergy_clothes_pop_trigger = yes
					struggling_pop_trigger = no
				}
			}
		}	

		holyscripture_pop_idle = {
			animation = { head = "idle_head_pop_holyscripture" torso = "idle_body_holyscripture" }

			weight = {
				base = 0

				modifier = {
					add = 100
					clergy_clothes_pop_trigger = yes
					struggling_pop_trigger = no
				}
			}
			portrait_modifier = { animations_props = holyscripture_attachment	}
		}

		bureaucrat_pop_idle = {
			animation = { head = "idle_head_pop_calipers" torso = "idle_body_General_VS_Right_Cross" }

			weight = {
				base = 0

				modifier = {
					add = 100
					bureaucrats_clothes_pop_trigger = yes
					struggling_pop_trigger = no
				}
			}
		}

		rifle_pop_idle = {
			animation = { head = "idle_head_pop_holyscripture" torso = "idle_body_rifle" }

			weight = {
				base = 0

				modifier = {
					add = 110
					soldier_clothes_pop_trigger = yes
					struggling_pop_trigger = no
				}
			}
			portrait_modifier = { animations_props = rifle_attachment }
		}

		pitchfork_pop_idle = {
			animation = { head = "idle_head_pop_wrench" torso = "idle_body_pitchfork" }

			weight = {
				base = 0

				modifier = {
					add = 110
					farmers_clothes_pop_trigger = yes
					struggling_pop_trigger = no
				}
			}
			portrait_modifier = { animations_props = pitchfork_attachment }
		}

		shackles_pop_idle = {
			animation = { head = "idle_head_pop_shackles" torso = "idle_body_shackles" }

			weight = {
				base = 0

				modifier = {
					add = 110
					slaves_clothes_pop_trigger = yes
				}
			}
			portrait_modifier = { animations_props = shackles_attachment }
		}


		crudehoe_pop_idle = {
			animation = { head = "idle_head_pop_pitchfork" torso = "idle_body_pitchfork" }

			weight = {
				base = 0

				modifier = {
					add = 150
					peasants_clothes_pop_trigger = yes
					struggling_pop_trigger = no
				}
			}
			portrait_modifier = { animations_props = crudehoe_attachment }
		}

		walkingcane_pop_idle = {
			animation = { head = "idle_head_pop_walkingcane" torso = "idle_body_walkingcane" }

			weight = {
				base = 0

				modifier = {
					add = 110
					upper_clothes_pop_trigger = yes
					struggling_pop_trigger = no
				}
			}
			portrait_modifier = { animations_props = walkingcane_attachment }
		}

		wrench_pop_idle = {
			animation = { head = "idle_head_pop_wrench" torso = "idle_body_wrench" }

			weight = {
				base = 0

			modifier = {
					add = 110
					machinists_clothes_pop_trigger = yes
					struggling_pop_trigger = no
				}
			}
			portrait_modifier = { animations_props = wrench_attachment }
		}

		ledger_pop_idle = {
			animation = { head = "idle_head_pop_ledger" torso = "idle_body_ledger" }

			weight = {
				base = 0

				modifier = {
					add = 110
					clerks_clothes_pop_trigger = yes
					struggling_pop_trigger = no
				}
			}
			portrait_modifier = { animations_props = ledger_attachment }
		}

		caliper_pop_idle = {
			animation = { head = "idle_head_pop_calipers" torso = "idle_body_calipers" }

			weight = {
				base = 0

				modifier = {
					add = 110
					engineers_clothes_pop_trigger = yes
					struggling_pop_trigger = no
				}
			}
			portrait_modifier = { animations_props = caliper_attachment }
		}

		sack_pop_idle = {
			animation = { head = "idle_head_pop_sack" torso = "idle_body_sack" }

			weight = {
				base = 0

				modifier = {
					add = 100
					laborers_clothes_pop_trigger = yes
				}
			}
			portrait_modifier = { animations_props = sack_attachment }
		}


		butcher_pop_idle = {
			animation = { head = "idle_head_pop_apron" torso = "idle_body_apron" }

			weight = {
				base = 0

				modifier = {
					add = 110
					shopkeepers_clothes_pop_trigger = yes
					struggling_pop_trigger = no
				}
			}

		}

		parasol_pop_idle = {
			animation = { head = "idle_head_pop_parasol" torso = "idle_body_parasol" }

			weight = {
				base = 0

				modifier = {
					add = 100
					upper_clothes_pop_trigger = yes
					european_clothes_pop_trigger = yes
					struggling_pop_trigger = no
				}
			}
			portrait_modifier = { animations_props = parasol_attachment }
		}

		fan_pop_idle = {
			animation = { head = "idle_head_pop_fan" torso = "idle_body_fan" }

			weight = {
				base = 0

				modifier = {
					add = 50
					middle_clothes_pop_trigger = yes
					struggling_pop_trigger = no
				}
			}
			portrait_modifier = { animations_props = handheldfan_attachment }
		}
		
		flowers_pop_idle = {
			animation = { head = "idle_head_pop_flowers" torso = "idle_body_flowers" }

			weight = {
				base = 0

				modifier = {
					add = 50
					middle_clothes_pop_trigger = yes
					struggling_pop_trigger = no
				}
			}
			portrait_modifier = { animations_props = bundleofflowers_attachment	 }
		}
		
		apron_pop_idle = {
			animation = { head = "idle_head_pop_apron" torso = "idle_body_apron" }

			weight = {
				base = 0

				modifier = {
					add = 110
					shopkeepers_clothes_pop_trigger = yes
					struggling_pop_trigger = no
				}
			}																
		}
		
		hattop_pop_idle = {
			animation = { head = "idle_head_pop_hattop" torso = "idle_body_hattop" }

			weight = {
				base = 0

				modifier = {
					add = 100
					aristocrats_clothes_pop_trigger = yes
					european_clothes_pop_trigger = yes
					struggling_pop_trigger = no
				}
			}																
		}				
				
		hatmonocle_pop_idle = {
			animation = { head = "idle_head_pop_hatmonocle" torso = "idle_body_hatmonocle" }
			weight = {
				base = 0

				modifier = {
					add = 100
					aristocrats_clothes_pop_trigger = yes
					european_clothes_pop_trigger = yes
					struggling_pop_trigger = no
				}
			}									
		}


		
		
		###################################
		# POP Animations  for Struggling/Starving
		###################################
		
		saber_pop_idle_struggle = {
			animation = { head = "idle_head_struggle_pop_saber" torso = "idle_body_struggle_saber" }

			weight = {
				base = 0

				modifier = {
					add = 150
					officers_clothes_pop_trigger = yes
					struggling_pop_trigger = yes
				}
			}
			portrait_modifier = { 
				animations_props = saber_attachment	
			}
		}

		shovels_pop_idle_struggle = {
			animation = { head = "idle_head_struggle_pop_shovels" torso = "idle_body_struggle_shovels" }
				
			weight = {
				base = 0

				modifier = {
					add = 150
					laborers_clothes_pop_trigger = yes
					struggling_pop_trigger = yes
				}
			}
			portrait_modifier = { animations_props = shovel_attachment }
		}	

		clergy_india_idle_struggle = {
			animation = { head = "idle_head_struggle_pop_pitchfork" torso = "idle_body_struggle_hatmonocle" }

			weight = {
				base = 0

				modifier = {
					add = 5000

					OR = {
		                hindu_clothes_pop_trigger = yes
		                buddhist_clothes_pop_trigger = yes
		            }
	                clergy_clothes_pop_trigger = yes
					struggling_pop_trigger = yes
				}
			}
		}

		holyscripture_pop_idle_struggle = {
			animation = { head = "idle_head_struggle_pop_holyscripture" torso = "idle_body_struggle_holyscripture" }

			weight = {
				base = 0

				modifier = {
					add = 150
					clergy_clothes_pop_trigger = yes
					struggling_pop_trigger = yes
				}
			}
			portrait_modifier = { animations_props = holyscripture_attachment }
		}

		umbrella_pop_idle_struggle = {
			animation = { head = "idle_head_struggle_pop_umbrella" torso = "idle_body_struggle_umbrella" }

			weight = {
				base = 0

				modifier = {
					add = 150
					bureaucrats_clothes_pop_trigger = yes
					struggling_pop_trigger = yes
				}
			}
			portrait_modifier = { animations_props = umbrella_attachment }
		}

		rifle_pop_idle_struggle = {
			animation = { head = "idle_head_struggle_pop_pitchfork" torso = "idle_body_struggle_shovels" }

			weight = {
				base = 0

				modifier = {
					add = 150
					soldier_clothes_pop_trigger = yes
					struggling_pop_trigger = yes
				}
			}
			portrait_modifier = { animations_props = rifle_attachment }
		}

		pitchfork_pop_idle_struggle = {
			animation = { head = "idle_head_struggle_pop_pitchfork" torso = "idle_body_struggle_pitchfork" }

			weight = {
				base = 0

				modifier = {
					add = 150
					farmers_clothes_pop_trigger = yes
					struggling_pop_trigger = yes
				}
			}
			portrait_modifier = { animations_props = pitchfork_attachment }
		}	



		crudehoe_pop_idle_struggle = {
			animation = { head = "idle_head_struggle_pop_shovels" torso = "idle_body_struggle_shovels" }

			weight = {
				base = 0

				modifier = {
					add = 150
					peasants_clothes_pop_trigger = yes
					struggling_pop_trigger = yes
				}
			}
			portrait_modifier = { animations_props = crudehoe_attachment }
		}

		crudehoe_pop_idle_struggle_02 = {
			animation = { head = "idle_head_struggle_pop_pitchfork" torso = "idle_body_struggle_pitchfork" }

			weight = {
				base = 0

				modifier = {
					add = 200
					peasants_clothes_pop_trigger = yes
					struggling_pop_trigger = yes
				}
			}
			portrait_modifier = { animations_props = crudehoe_attachment }
		}

		walkingcane_pop_idle_struggle = {
			animation = { head = "idle_head_struggle_pop_pitchfork" torso = "idle_body_struggle_walkingcane" }

			weight = {
				base = 0

				modifier = {
					add = 100
					upper_clothes_pop_trigger = yes
					struggling_pop_trigger = yes
				}
			}
			portrait_modifier = { animations_props = walkingcane_attachment }
		}

		wrench_pop_idle_struggle = {
			animation = { head = "idle_head_struggle_pop_wrench" torso = "idle_body_struggle_wrench" }

			weight = {
				base = 0

				modifier = {
					add = 150
					machinists_clothes_pop_trigger = yes
					struggling_pop_trigger = yes
				}
			}
			portrait_modifier = { animations_props = wrench_attachment }
		}

		ledger_pop_idle_struggle = {
			animation = { head = "idle_head_struggle_pop_ledger" torso = "idle_body_struggle_ledger" }

			weight = {
				base = 0

				modifier = {
					add = 150
					clerks_clothes_pop_trigger = yes
					struggling_pop_trigger = yes
				}
			}
			portrait_modifier = { animations_props = ledger_attachment }
		}

		caliper_pop_idle_struggle = {
			animation = { head = "idle_head_struggle_pop_calipers" torso = "idle_body_struggle_calipers" }

			weight = {
				base = 0

				modifier = {
					add = 150
					engineers_clothes_pop_trigger = yes
					struggling_pop_trigger = yes
				}
			}
			portrait_modifier = { animations_props = caliper_attachment }
		}

		butcher_pop_idle_struggle = {
			animation = { head = "idle_head_struggle_pop_butcher" torso = "idle_body_struggle_butcher" }

			weight = {
				base = 0

				modifier = {
					add = 150
					shopkeepers_clothes_pop_trigger = yes
					struggling_pop_trigger = yes
				}
			}
			portrait_modifier = { animations_props = butcherknife_attachment }
		}


		basket_pop_idle_struggle = {
			animation = { head = "idle_head_struggle_pop_basket" torso = "idle_body_struggle_basket" }

			weight = {
				base = 0

				modifier = {
					add = 150
					poor_clothes_pop_trigger = yes
					struggling_pop_trigger = yes
				}
			}
			portrait_modifier = { animations_props = basket_attachment	 }
		}

		fan_pop_idle_struggle = {
			animation = { head = "idle_head_struggle_pop_fan" torso = "idle_body_struggle_fan" }

			weight = {
				base = 0

				modifier = {
					add = 150
					middle_clothes_pop_trigger = yes
					struggling_pop_trigger = yes
				}
			}
			portrait_modifier = { animations_props = handheldfan_attachment }
		}

		flowers_pop_idle_struggle = {
			animation = { head = "idle_head_struggle_pop_flowers" torso = "idle_body_struggle_flowers" }

			weight = {
				base = 0

				modifier = {
					add = 150
					middle_clothes_pop_trigger = yes
					struggling_pop_trigger = yes
				}
			}
			portrait_modifier = { animations_props = bundleofflowers_attachment	 }
		}

		parasol_pop_idle_struggle = {
			animation = { head = "idle_head_struggle_pop_parasol" torso = "idle_body_struggle_parasol" }

			weight = {
				base = 0

				modifier = {
					add = 150
					upper_clothes_pop_trigger = yes
					european_clothes_pop_trigger = yes
					struggling_pop_trigger = yes
				}
			}
			portrait_modifier = { animations_props = parasol_attachment }
		}

		apron_pop_idle_struggle = {
			animation = { head = "idle_head_struggle_pop_apron" torso = "idle_body_struggle_apron" }
	
			weight = {
				base = 0
	
				modifier = {
					add = 150
					shopkeepers_clothes_pop_trigger = yes
					struggling_pop_trigger = yes
				}
			}								
		}
								
		hattop_pop_idle_struggle = {
			animation = { head = "idle_head_struggle_pop_hattop" torso = "idle_body_struggle_hattop" }

			weight = {
				base = 0

				modifier = {
					add = 150
					aristocrats_clothes_pop_trigger = yes
					european_clothes_pop_trigger = yes
					struggling_pop_trigger = yes
				}
			}
		}						

		hatmonocle_pop_idle_struggle = {
			animation = { head = "idle_head_struggle_pop_hatmonocle" torso = "idle_body_struggle_hatmonocle" }

			weight = {
				base = 0

				modifier = {
					add = 150
					aristocrats_clothes_pop_trigger = yes
					european_clothes_pop_trigger = yes
					struggling_pop_trigger = yes
				}
			}
		}

		###############  For content design:   Not hooked up they are for game events.  was told events currently not supported by code  date 2022 feb
		#### Event Animations ####
		#### General Emotions Animations ####

		########general_emotions_happy_idle = {
		########			animation = { head = "idle_head_emotions_happy" torso = "idle_body_emotions_happy" }
		########}

		########general_emotions_scheming_idle = {
		########			animation = { head = "idle_head_emotions_scheming" torso = "idle_body_emotions_scheming" }
		########}

		########general_emotions_boastful_idle = {
		########			animation = { head = "idle_head_emotions_boastful" torso = "idle_body_emotions_boastful" }
		########}

		########general_emotions_proud_idle = {
		########			animation = { head = "idle_head_emotions_proud" torso = "idle_body_emotions_proud" }
		########}

	}

	boy = {
		default = { head = "idle1" torso = "idle1" }
	}

	female = {
		default = { head = "idle3" torso = "idle3" }
		
		###################################
		# POP Animations  #
		###################################

		parasol_pop_idle = {
			animation = { head = "idle_head_pop_parasol" torso = "idle_body_parasol" }

			weight = {
				base = 0

				modifier = {
					add = 100
					upper_clothes_pop_trigger = yes
					european_clothes_pop_trigger = yes
					struggling_pop_trigger = no
				}
			}
			portrait_modifier = { animations_props = parasol_attachment }
		}

		butcher_pop_idle = {
			animation = { head = "idle_head_pop_apron" torso = "idle_body_butcher" }

			weight = {
				base = 0

				modifier = {
					add = 110
					shopkeepers_clothes_pop_trigger = yes
					struggling_pop_trigger = no
				}
			}
			portrait_modifier = { animations_props = butcherknife_attachment }
		}

		fan_pop_idle = {
			animation = { head = "idle_head_pop_fan" torso = "idle_body_fan" }

			weight = {
				base = 0

				modifier = {
					add = 50
					OR = {
						middle_clothes_pop_trigger = yes
						upper_clothes_pop_trigger = yes
					}
					struggling_pop_trigger = no
				}
			}
			portrait_modifier = { animations_props = handheldfan_attachment }
		}

		flowers_pop_idle = {
			animation = { head = "idle_head_pop_flowers" torso = "idle_body_flowers" }

			weight = {
				base = 0

				modifier = {
					add = 50
					middle_clothes_pop_trigger = yes
					struggling_pop_trigger = no
				}
			}
			portrait_modifier = { animations_props = bundleofflowers_attachment	 }
		}
		sack_pop_idle = {
			animation = { head = "idle_head_pop_sack" torso = "idle_body_sack" }

			weight = {
				base = 0

				modifier = {
					add = 60
					laborers_clothes_pop_trigger = yes
				}
			}
			portrait_modifier = { animations_props = sack_attachment }
		}

		basket_pop_idle = {
			animation = { head = "idle_head_pop_basket" torso = "idle_body_basket" }

			weight = {
				base = 0

				modifier = {
					add = 50
					poor_clothes_pop_trigger = yes
					struggling_pop_trigger = no
				}
			}
			portrait_modifier = { animations_props = basket_attachment	 }
		}

		shackles_pop_idle = {
			animation = { head = "idle_head_pop_shackles" torso = "idle_body_shackles" }

			weight = {
				base = 0

				modifier = {
					add = 110
					slaves_clothes_pop_trigger = yes
				}
			}
			portrait_modifier = { animations_props = shackles_attachment }
		}
		
		pitchfork_pop_idle = {
			animation = { head = "idle_head_pop_hattop" torso = "idle_body_pitchfork" }

			weight = {
				base = 0

				modifier = {
					add = 110
					laborers_clothes_pop_trigger = yes
					struggling_pop_trigger = no
				}
			}
			portrait_modifier = { animations_props = pitchfork_attachment }
		}

		apron_pop_idle = {
			animation = { head = "idle_head_pop_saber" torso = "idle_body_hatmonocle" }

			weight = {
				base = 0

				modifier = {
					add = 110
					soldier_clothes_pop_trigger = yes
					struggling_pop_trigger = no
				}
			}
		}

		hattop_pop_idle = {
			animation = { head = "idle_head_pop_hattop" torso = "idle_body_hatmonocle" }

			weight = {
				base = 0

				modifier = {
					add = 150
					aristocrats_clothes_pop_trigger = yes
					struggling_pop_trigger = no
				}
			}

		}

		holy_pop_idle = {
			animation = { head = "idle_head_pop_ledger" torso = "idle_body_General_VS_Left_Cross" }

			weight = {
				base = 0

				modifier = {
					add = 100
					clergy_clothes_pop_trigger = yes
					struggling_pop_trigger = no
				}
			}
		}
				officer_pop_idle = {
			animation = { head = "idle_head_pop_ledger" torso = "idle_body_General_VS_Left_HandsHips" }

			weight = {
				base = 0

				modifier = {
					add = 100
					officers_clothes_pop_trigger = yes
					struggling_pop_trigger = no
				}
			}
		}

		###################################
		# POP Animations  for Struggling/Starving#
		###################################
		
		parasol_pop_idle_struggle = {
			animation = { head = "idle_head_struggle_pop_parasol" torso = "idle_body_struggle_parasol" }

			weight = {
				base = 0

				modifier = {
					add = 150
					upper_clothes_pop_trigger = yes
					european_clothes_pop_trigger = yes
					struggling_pop_trigger = yes
				}
			}
			portrait_modifier = { animations_props = parasol_attachment }
		}

		butcher_pop_idle_struggle = {
			animation = { head = "idle_head_struggle_pop_butcher" torso = "idle_body_struggle_butcher" }

			weight = {
				base = 0

				modifier = {
					add = 150
					shopkeepers_clothes_pop_trigger = yes
					struggling_pop_trigger = yes
				}
			}
			portrait_modifier = { animations_props = butcherknife_attachment }
		}

		fan_pop_idle_struggle = {
			animation = { head = "idle_head_struggle_pop_fan" torso = "idle_body_struggle_fan" }

			weight = {
				base = 0

				modifier = {
					add = 150
					middle_clothes_pop_trigger = yes
					struggling_pop_trigger = yes
				}
			}
			portrait_modifier = { animations_props = handheldfan_attachment }
		}

		flowers_pop_idle_struggle = {
			animation = { head = "idle_head_struggle_pop_flowers" torso = "idle_body_struggle_flowers" }

			weight = {
				base = 0

				modifier = {
					add = 150
					middle_clothes_pop_trigger = yes
					struggling_pop_trigger = yes
				}
			}
			portrait_modifier = { animations_props = bundleofflowers_attachment	 }
		}

		apron_pop_idle_struggle = {
			animation = { head = "idle_head_struggle_pop_apron" torso = "idle_body_struggle_hatmonocle" }
	
			weight = {
				base = 0
	
				modifier = {
					add = 150
					laborers_clothes_pop_trigger = yes
					struggling_pop_trigger = yes
				}
			}								
		}
			
					crudehoe_pop_idle_struggle = {
			animation = { head = "idle_head_struggle_pop_hatmonocle" torso = "idle_body_struggle_crudehoe" }

			weight = {
				base = 0

				modifier = {
					add = 150
					peasants_clothes_pop_trigger = yes
					struggling_pop_trigger = yes
				}
			}
						portrait_modifier = { animations_props = shovel_attachment	 }
		}
				apron_pop_idle = {
			animation = { head = "idle_head_pop_holyscripture" torso = "idle_body_struggle_butcher" }

			weight = {
				base = 0

				modifier = {
					add = 110
					soldier_clothes_pop_trigger = yes
					struggling_pop_trigger = yes
				}
			}
		}

	###############  For content design:   Not hooked up they are for game events.  was told events currently not supported by code  date 2022 feb
	#### Event Animations ####

		####general_emotions_happy_idle = {
	########				animation = { head = "idle_head_emotions_happy" torso = "idle_body_emotions_happy" }
	########	}

		####general_emotions_scheming_idle = {
	########					animation = { head = "idle_head_emotions_scheming" torso = "idle_body_emotions_scheming" }
	########	}

		####general_emotions_boastful_idle = {
	########					animation = { head = "idle_head_emotions_boastful" torso = "idle_body_emotions_boastful" }
	########	}

		####general_emotions_proud_idle = {
	########					animation = { head = "idle_head_emotions_proud" torso = "idle_body_emotions_proud" }
	########	}
		

	}
	
	girl = boy

	adolescent_boy = {
        default = { head = "idle_entry" torso = "idle_entry" }
    }

    adolescent_girl = {
        default = { head = "idle_entry" torso = "idle_entry" }
    }

    infant = adolescent_girl
}

### COMMANDER VS LEFT
commander_vs_left = {
	
	male = {
		default = { head = "idle_entry" torso = "idle_entry" }
		
		General_VS_Left_Saber= {

			animation = { head = "idle_head_General_VS_Left_Saber" torso = "idle_body_General_VS_Left_Saber" }

			portrait_modifier = { 
				animations_props = saber_attachment	
			}
		}

		General_VS_Left_Point = {
			animation = { head = "idle_head_General_VS_Left_Point" torso = "idle_body_General_VS_Left_Point" }
		}	

		General_VS_Left_Fist = {
			animation = { head = "idle_head_General_VS_Left_Fist" torso = "idle_body_General_VS_Left_Fist" }	
		}

		General_VS_Left_Cross = {
			animation = { head = "idle_head_General_VS_Left_Cross" torso = "idle_body_General_VS_Left_Cross" }
		}

		General_VS_Left_HandsHips = {
			animation = { head = "idle_head_General_VS_Left_HandsHips" torso = "idle_body_General_VS_Left_HandsHips" }
		}
	}
	
	female = {
		default = { head = "idle_entry" torso = "idle_entry" }
	}
	
	boy = {
		default = { head = "idle1" torso = "idle1" }
	}
	girl = boy

	adolescent_boy = {
        default = { head = "idle_entry" torso = "idle_entry" }
    }

    adolescent_girl = {
        default = { head = "idle_entry" torso = "idle_entry" }
    }

    infant = adolescent_girl
}

### COMMANDER VS RIGHT
commander_vs_right = {
	
	male = {
		default = { head = "idle_entry" torso = "idle_entry" }
		
		General_VS_Right_Saber= {
			animation = { head = "idle_head_General_VS_Right_Saber" torso = "idle_body_General_VS_Right_Saber" }
			
			portrait_modifier = { 
				animations_props = saber_attachment	
			}
		}

		General_VS_Right_Point = {
			animation = { head = "idle_head_General_VS_Right_Point" torso = "idle_body_General_VS_Right_Point" }
		}	

		General_VS_Right_Fist = {
			animation = { head = "idle_head_General_VS_Right_Fist" torso = "idle_body_General_VS_Right_Fist" }
		}

		General_VS_Right_Cross = {
			animation = { head = "idle_head_General_VS_Right_Cross" torso = "idle_body_General_VS_Right_Cross" }
		}

		General_VS_Right_HandsHips = {
			animation = { head = "idle_head_General_VS_Right_HandsHips" torso = "idle_body_General_VS_Right_HandsHips" }
		}
	}
	
	female = {
		default = { head = "idle_entry" torso = "idle_entry" }  
	}
	
	boy = {
		default = { head = "idle1" torso = "idle1" }
	}
	girl = boy

	adolescent_boy = {
        default = { head = "idle_entry" torso = "idle_entry" }
    }

    adolescent_girl = {
        default = { head = "idle_entry" torso = "idle_entry" }
    }

    infant = adolescent_girl
}
