﻿# brought into anbennar files b/c the variables it was using was throwing errors
grand_exhibition_points = {
	value = 0
	
	# if = {
	# 	limit = {
	# 		infamy >= infamy_threshold:infamous
	# 	}
	# 	add = -5
	# }
	
	# if = {
	# 	limit = {
	# 		infamy >= infamy_threshold:notorious
	# 	}
	# 	add = -7
	# }
	
	# if = {
	# 	limit = {
	# 		infamy >= infamy_threshold:pariah
	# 	}
	# 	add = -15
	# }
	
	# if = {
	# 	limit = {
	# 		is_at_war = yes
	# 	}
	# 	add = -5
	# }
	
	# if = { #Depending on your rank add some points
	# 	limit = {
	# 		country_rank = rank_value:great_power
	# 	}
	# 	add = 10
	# } 

	# if = { 	
	# 	limit = {
	# 		country_rank = rank_value:major_power
	# 	}
	# 	add = 7
	# } 

	# if = {
	# 	limit = {
	# 		country_rank = rank_value:minor_power
	# 	}
	# 	add = 3
	# } 
	
	# # if = {
	# # 	limit = {
	# # 		has_variable = first_to_reach_south_pole
	# # 	}
	# # 	add = 10
	# # }
	
	# if = {
	# 	limit = {
	# 		has_variable = took_strange_rock_var #found a cool rock in antarctica
	# 	}
	# 	add = 5
	# }
	
	# if = {
	# 	limit = {
	# 		has_variable = expedition_found_falls #reached the stanley falls
	# 	}
	# 	add = 5
	# }
	
	# if = {
	# 	limit = {
	# 		has_variable = expedition_trading_gifts_accepted_var #traded gifts in the Congo expedition
	# 	}
	# 	add = 5
	# }
	
	# if = {
	# 	limit = {
	# 		has_variable = recorded_expedition_film_var
	# 	}
	# 	add = 10
	# }
	
	# if = {
	# 	limit = {
	# 		has_variable = previous_expedition_grave #you have the grave of previous explorers
	# 	}
	# 	add = 5
	# }
	
	# if = {
	# 	limit = {
	# 		has_variable = expedition_photography_var
	# 	}
	# 	add = 10
	# }
	
	# if = {
	# 	limit = {
	# 		has_variable = expedition_plants_var
	# 	}
	# 	add = 5
	# }
	
	# if = {
	# 	limit = {
	# 		has_variable = expedition_barter_var #bartered with the NA natives
	# 	}
	# 	add = 5
	# }
	
	# if = {
	# 	limit = {
	# 		has_variable = rhino_success_var
	# 	}
	# 	add = 5
	# }
	
	# if = {
	# 	limit = { #you got some cool maps
	# 		has_variable = expedition_geographic_var
	# 	}
	# 	add = 7
	# }

	# if = {
	# 	limit = {
	# 		techs_researched > 1
	# 	}
	# 	add = root.techs_researched
	# }
}